[
  {
    "id": 1,
    "question": "Jakie miasto jest stolicą małopolski?",
    "correctAnswer": 2,
    "userAnswer": null,
    "answers": [
      {
        "id": 1,
        "answer": "Warszawa"
      },
      {
        "id": 2,
        "answer": "Kraków"
      },
      {
        "id": 3,
        "answer": "Katowice"
      },
      {
        "id": 4,
        "answer": "Zakopane"
      }
    ]
  },
  {
    "id": 2,
    "question": "Jakie miasto jest stolicą Rosji?",
    "correctAnswer": 2,
    "userAnswer": null,
    "answers": [
      {
        "id": 1,
        "answer": "Kraków"
      },
      {
        "id": 2,
        "answer": "Moskwa"
      },
      {
        "id": 3,
        "answer": "Warszawa"
      },
      {
        "id": 4,
        "answer": "Gdańsk"
      }
    ]
  },
  {
    "id": 3,
    "question": "Pierwsza stolica Polski to?",
    "correctAnswer": 1,
    "userAnswer": null,
    "answers": [
      {
        "id": 1,
        "answer": "Gniezno"
      },
      {
        "id": 2,
        "answer": "Poznań"
      },
      {
        "id": 3,
        "answer": "Warszawa"
      },
      {
        "id": 4,
        "answer": "Kraków"
      }
    ]
  },
  {
    "id": 4,
    "question": "Jakie koloru jest czerowny maluch?",
    "correctAnswer": 1,
    "userAnswer": null,
    "answers": [
      {
        "id": 1,
        "answer": "Czerwonego"
      },
      {
        "id": 2,
        "answer": "Zielonego"
      },
      {
        "id": 3,
        "answer": "Niebieskiego"
      },
      {
        "id": 4,
        "answer": "Czarnego"
      }
    ]
  },
  {
    "id": 5,
    "question": "Jakie miasto jest stolicą Polski?",
    "correctAnswer": 3,
    "userAnswer": null,
    "answers": [
      {
        "id": 1,
        "answer": "Kraków"
      },
      {
        "id": 2,
        "answer": "Krakowice"
      },
      {
        "id": 3,
        "answer": "Warszawa"
      },
      {
        "id": 4,
        "answer": "Krakowice"
      }
    ]
  },
  {
    "id": 6,
    "question": "Gdzie odbywa się Opener Festival?",
    "correctAnswer": 4,
    "userAnswer": null,
    "answers": [
      {
        "id": 1,
        "answer": "W Krakowie"
      },
      {
        "id": 2,
        "answer": "W Katowicach"
      },
      {
        "id": 3,
        "answer": "W Sosnowcu"
      },
      {
        "id": 4,
        "answer": "W Gdyni"
      }
    ]
  },
  {
    "id": 7,
    "question": "Gdzie odbywa się OWF?",
    "correctAnswer": 3,
    "userAnswer": null,
    "answers": [
      {
        "id": 1,
        "answer": "W Krakowie"
      },
      {
        "id": 2,
        "answer": "W Katowicach"
      },
      {
        "id": 3,
        "answer": "W Warszawie"
      },
      {
        "id": 4,
        "answer": "W Gdyni"
      }
    ]
  },
  {
    "id": 8,
    "question": "Jakie miasto jest stolicą Czech?",
    "correctAnswer": 1,
    "userAnswer": null,
    "answers": [
      {
        "id": 1,
        "answer": "Praga"
      },
      {
        "id": 2,
        "answer": "Rybnik"
      },
      {
        "id": 3,
        "answer": "Warszawa"
      },
      {
        "id": 4,
        "answer": "Kraków"
      }
    ]
  },
  {
    "id": 9,
    "question": "Jakie miasto jest stolicą Niemiec?",
    "correctAnswer": 2,
    "userAnswer": null,
    "answers": [
      {
        "id": 1,
        "answer": "Kraków"
      },
      {
        "id": 2,
        "answer": "Berlin"
      },
      {
        "id": 3,
        "answer": "Warszawa"
      },
      {
        "id": 4,
        "answer": "Rzym"
      }
    ]
  },
  {
    "id": 10,
    "question": "Jakie miasto jest stolicą Hiszpanii?",
    "correctAnswer": 1,
    "userAnswer": null,
    "answers": [
      {
        "id": 1,
        "answer": "Madryt"
      },
      {
        "id": 2,
        "answer": "Gdynia"
      },
      {
        "id": 3,
        "answer": "Berlin"
      },
      {
        "id": 4,
        "answer": "Opole"
      }
    ]
  }
]